Introduction à tidymodels
…
## 
## Attaching package: 'vip'

## The following object is masked from 'package:utils':
## 
##     vi

theme_set(theme_bw())
set.seed(42)

data("stackoverflow")
stackoverflow

## # A tibble: 5,594 x 21
##    Country Salary YearsCodedJob OpenSource Hobby CompanySizeNumb… Remote
##    <fct>    <dbl>         <int>      <dbl> <dbl>            <dbl> <fct> 
##  1 United… 1.00e5            20          0     1             5000 Remote
##  2 United… 1.30e5            20          1     1             1000 Remote
##  3 United… 1.75e5            16          0     1            10000 Not r…
##  4 Germany 6.45e4             4          0     0             1000 Not r…
##  5 India   6.64e3             1          0     1             5000 Not r…
##  6 United… 6.50e4             1          0     1               20 Not r…
##  7 United… 1.10e5            13          0     1               20 Not r…
##  8 Germany 5.38e4             4          1     0             5000 Not r…
##  9 United… 1.09e5             7          1     1               20 Not r…
## 10 Germany 8.39e4            17          1     1               20 Not r…
## # … with 5,584 more rows, and 14 more variables: CareerSatisfaction <int>,
## #   Data_scientist <dbl>, Database_administrator <dbl>,
## #   Desktop_applications_developer <dbl>,
## #   Developer_with_stats_math_background <dbl>, DevOps <dbl>,
## #   Embedded_developer <dbl>, Graphic_designer <dbl>,
## #   Graphics_programming <dbl>, Machine_learning_specialist <dbl>,
## #   Mobile_developer <dbl>, Quality_assurance_engineer <dbl>,
## #   Systems_administrator <dbl>, Web_developer <dbl>
…
Ensemble de test et d’apprentissage

On utilise le package rsample pour séparer notre jeu de données en deux.

split <- initial_split(stackoverflow, prop = 0.8, strata = Country)
split

## <Analysis/Assess/Total>
## <4476/1118/5594>

df_train <- training(split)
df_train

## # A tibble: 4,476 x 21
##    Country Salary YearsCodedJob OpenSource Hobby CompanySizeNumb… Remote
##    <fct>    <dbl>         <int>      <dbl> <dbl>            <dbl> <fct> 
##  1 United… 1.00e5            20          0     1             5000 Remote
##  2 India   6.64e3             1          0     1             5000 Not r…
##  3 United… 6.50e4             1          0     1               20 Not r…
##  4 United… 1.10e5            13          0     1               20 Not r…
##  5 Germany 5.38e4             4          1     0             5000 Not r…
##  6 United… 1.09e5             7          1     1               20 Not r…
##  7 Germany 8.39e4            17          1     1               20 Not r…
##  8 United… 5.10e4             1          0     0               20 Not r…
##  9 United… 3.25e4             1          1     0               10 Not r…
## 10 United… 9.00e4            10          1     0               10 Not r…
## # … with 4,466 more rows, and 14 more variables: CareerSatisfaction <int>,
## #   Data_scientist <dbl>, Database_administrator <dbl>,
## #   Desktop_applications_developer <dbl>,
## #   Developer_with_stats_math_background <dbl>, DevOps <dbl>,
## #   Embedded_developer <dbl>, Graphic_designer <dbl>,
## #   Graphics_programming <dbl>, Machine_learning_specialist <dbl>,
## #   Mobile_developer <dbl>, Quality_assurance_engineer <dbl>,
## #   Systems_administrator <dbl>, Web_developer <dbl>

df_test <- testing(split)
df_test

## # A tibble: 1,118 x 21
##    Country Salary YearsCodedJob OpenSource Hobby CompanySizeNumb… Remote
##    <fct>    <dbl>         <int>      <dbl> <dbl>            <dbl> <fct> 
##  1 United… 1.30e5            20          1     1             1000 Remote
##  2 United… 1.75e5            16          0     1            10000 Not r…
##  3 Germany 6.45e4             4          0     0             1000 Not r…
##  4 United… 3.00e4             1          0     1               20 Not r…
##  5 United… 3.25e4             2          0     1               10 Not r…
##  6 United… 1.14e5            20          1     1               20 Not r…
##  7 United… 1.00e5            14          0     1               20 Not r…
##  8 Germany 1.08e4             1          0     1               10 Not r…
##  9 United… 5.00e4             2          1     1               10 Not r…
## 10 United… 6.38e4            17          0     1              500 Not r…
## # … with 1,108 more rows, and 14 more variables: CareerSatisfaction <int>,
## #   Data_scientist <dbl>, Database_administrator <dbl>,
## #   Desktop_applications_developer <dbl>,
## #   Developer_with_stats_math_background <dbl>, DevOps <dbl>,
## #   Embedded_developer <dbl>, Graphic_designer <dbl>,
## #   Graphics_programming <dbl>, Machine_learning_specialist <dbl>,
## #   Mobile_developer <dbl>, Quality_assurance_engineer <dbl>,
## #   Systems_administrator <dbl>, Web_developer <dbl>
…
tidy(fit_lr)

## # A tibble: 24 x 5
##    term                                 estimate std.error statistic   p.value
##    <chr>                                   <dbl>     <dbl>     <dbl>     <dbl>
##  1 (Intercept)                            71691.      342.   210.    0.       
##  2 YearsCodedJob                          14438.      364.    39.7   2.70e-295
##  3 OpenSource                              1943.      356.     5.46  4.92e-  8
##  4 Hobby                                    333.      350.     0.949 3.42e-  1
##  5 CompanySizeNumber                       3705.      350.    10.6   7.39e- 26
##  6 CareerSatisfaction                      1723.      350.     4.92  8.81e-  7
##  7 Data_scientist                           462.      383.     1.21  2.28e-  1
##  8 Database_administrator                 -1587.      393.    -4.04  5.46e-  5
##  9 Desktop_applications_developer         -2295.      360.    -6.37  2.09e- 10
## 10 Developer_with_stats_math_background     789.      359.     2.20  2.80e-  2
## # … with 14 more rows

On peut prédire avec la fonction predict.

wkf_lr_fit %>%
  predict(df_train)

## # A tibble: 4,476 x 1
##      .pred
##      <dbl>
##  1  95665.
##  2   3812.
##  3  76595.
##  4 104515.
##  5  50056.
##  6  94181.
##  7  80331.
##  8  77865.
##  9  41784.
## 10 101619.
## # … with 4,466 more rows

On fait de même sur l’ensemble de test.

df_test_lr <-
  wkf_lr_fit %>%
  predict(df_test) %>%
  bind_cols(df_test)
df_test_lr

## # A tibble: 1,118 x 22
##     .pred Country Salary YearsCodedJob OpenSource Hobby CompanySizeNumb… Remote
##     <dbl> <fct>    <dbl>         <int>      <dbl> <dbl>            <dbl> <fct> 
##  1 1.33e5 United… 1.30e5            20          1     1             1000 Remote
##  2 1.22e5 United… 1.75e5            16          0     1            10000 Not r…
##  3 4.40e4 Germany 6.45e4             4          0     0             1000 Not r…
##  4 3.29e4 United… 3.00e4             1          0     1               20 Not r…
##  5 3.98e4 United… 3.25e4             2          0     1               10 Not r…
##  6 8.83e4 United… 1.14e5            20          1     1               20 Not r…
##  7 1.03e5 United… 1.00e5            14          0     1               20 Not r…
##  8 3.30e4 Germany 1.08e4             1          0     1               10 Not r…
##  9 7.49e4 United… 5.00e4             2          1     1               10 Not r…
## 10 7.28e4 United… 6.38e4            17          0     1              500 Not r…
## # … with 1,108 more rows, and 14 more variables: CareerSatisfaction <int>,
## #   Data_scientist <dbl>, Database_administrator <dbl>,
## #   Desktop_applications_developer <dbl>,
## #   Developer_with_stats_math_background <dbl>, DevOps <dbl>,
## #   Embedded_developer <dbl>, Graphic_designer <dbl>,
## #   Graphics_programming <dbl>, Machine_learning_specialist <dbl>,
## #   Mobile_developer <dbl>, Quality_assurance_engineer <dbl>,
## #   Systems_administrator <dbl>, Web_developer <dbl>
…
collect_metrics(tuned)

## # A tibble: 40 x 7
##     mtry min_n .metric .estimator      mean     n   std_err
##    <int> <int> <chr>   <chr>          <dbl> <int>     <dbl>
##  1     1    19 rmse    standard   30869.       10 469.     
##  2     1    19 rsq     standard       0.655    10   0.00986
##  3     1    33 rmse    standard   30902.       10 457.     
##  4     1    33 rsq     standard       0.655    10   0.00966
##  5     2     4 rmse    standard   24275.       10 414.     
##  6     2     4 rsq     standard       0.669    10   0.00966
##  7     3     9 rmse    standard   22871.       10 408.     
##  8     3     9 rsq     standard       0.678    10   0.00984
##  9     4    39 rmse    standard   22659.       10 406.     
## 10     4    39 rsq     standard       0.680    10   0.00978
## # … with 30 more rows
…
## # A tibble: 2 x 3
##   .metric .estimator .estimate
##   <chr>   <chr>          <dbl>
## 1 rmse    standard   23237.   
## 2 rsq     standard       0.677

On rapelle que le RMSE pour la regression linéaire vaut 2.377446410^{4}.

Importance des variables

On va utiliser le package vip pour calculer le poids des différentes variables dans chaque modèle.

vi(fit_lr)

## # A tibble: 23 x 3
##    Variable                       Importance Sign 
##    <chr>                               <dbl> <chr>
##  1 YearsCodedJob                       39.7  POS  
##  2 Country_United.States               28.3  POS  
##  3 Country_India                       23.7  NEG  
##  4 CompanySizeNumber                   10.6  POS  
##  5 Desktop_applications_developer       6.37 NEG  
##  6 OpenSource                           5.46 POS  
##  7 CareerSatisfaction                   4.92 POS  
##  8 Web_developer                        4.40 NEG  
##  9 Graphic_designer                     4.27 NEG  
## 10 Database_administrator               4.04 NEG  
## # … with 13 more rows
…
fit_rf <-
  wkf_rf_fit %>%
  pull(.workflow) %>%
  first() %>%
  pull_workflow_fit()
vi(fit_rf)

## # A tibble: 23 x 2
##    Variable               Importance
##    <chr>                       <dbl>
##  1 Country_United.States     2.17e12
##  2 YearsCodedJob             1.26e12
##  3 Country_India             9.43e11
##  4 CompanySizeNumber         2.45e11
##  5 Country_United.Kingdom    1.46e11
##  6 CareerSatisfaction        1.35e11
##  7 Country_Germany           1.20e11
##  8 OpenSource                5.06e10
##  9 Web_developer             4.47e10
## 10 Remote_Not.remote         4.10e10
## # … with 13 more rows
…
