topogram
…
                             country == "Cote d'Ivoire" ~ "Cte d'Ivoire",
                             country == "Central African Republic" ~ "Central African Rep.",
                             country == "Taiwan*" ~ "Taiwan",
                             country == "Equatorial Guinea" ~ "Eq. Guinea",
                             country == "South Sudan" ~ "S. Sudan",
                             country == "Western Sahara" ~ "W. Sahara",
                             country == "Korea, South" ~ "Korea",
                             country == "Czechia" ~ "Czech Rep.",
                             country == "Laos" ~ "Lao PDR",
                             country == "Bosnia and Herzegovina" ~ "Bosnia and Herz.",
                             TRUE    ~ country), # il reste d'autres inadquations dans les noms
         total_death = total_death + 1) # pour viter les 0
df_covid

## # A tibble: 188 x 2
##    country             total_death
##    <chr>                     <dbl>
##  1 Afghanistan                1390
##  2 Albania                     255
##  3 Algeria                    1447
##  4 Andorra                      54
##  5 Angola                      101
##  6 Antigua and Barbuda           4
##  7 Argentina                  7367
##  8 Armenia                     855
##  9 Australia                   526
## 10 Austria                     734
## #  with 178 more rows
…
