Séries temporelles en tidy
…
26/08/2020

Format tidy

library(tidyverse)
library(tsibble) # Handling time series tibble

Exemple de série de températures

weather <- nycflights13::weather %>% 
  dplyr::select(origin, time_hour, temp, humid, precip)
weather

## # A tibble: 26,115 x 5
##    origin time_hour            temp humid precip
##    <chr>  <dttm>              <dbl> <dbl>  <dbl>
##  1 EWR    2013-01-01 01:00:00  39.0  59.4      0
##  2 EWR    2013-01-01 02:00:00  39.0  61.6      0
##  3 EWR    2013-01-01 03:00:00  39.0  64.4      0
##  4 EWR    2013-01-01 04:00:00  39.9  62.2      0
##  5 EWR    2013-01-01 05:00:00  39.0  64.4      0
##  6 EWR    2013-01-01 06:00:00  37.9  67.2      0
##  7 EWR    2013-01-01 07:00:00  39.0  64.4      0
##  8 EWR    2013-01-01 08:00:00  39.9  62.2      0
##  9 EWR    2013-01-01 09:00:00  39.9  62.2      0
## 10 EWR    2013-01-01 10:00:00  41    59.6      0
## # … with 26,105 more rows
…
L’idée de tsibble est de créer un tableaux de série(s) temporelle(s). À partir d’un tibble, on utilisera la fonction as_tsibble. Cette fonction permet de traiter “spécialement” la colonne date.

Important:  Dans un tsibble, il ne peut pas y avoir deux dates identiques. Du coup, ici, comme des dates sont répétées pour différents aéroports, on spécifiera que la colonne correspondante (origin) est une clé de référence.

weather_tsbl <- as_tsibble(x = weather, # Tableau 
                         key = origin, # Clé d'identification 
                         index = time_hour, # Date 
                         regular = TRUE ) # On spécifie que c'est régulier
weather_tsbl

## # A tsibble: 26,115 x 5 [1h] <America/New_York>
## # Key:       origin [3]
##    origin time_hour            temp humid precip
##    <chr>  <dttm>              <dbl> <dbl>  <dbl>
##  1 EWR    2013-01-01 01:00:00  39.0  59.4      0
##  2 EWR    2013-01-01 02:00:00  39.0  61.6      0
##  3 EWR    2013-01-01 03:00:00  39.0  64.4      0
##  4 EWR    2013-01-01 04:00:00  39.9  62.2      0
##  5 EWR    2013-01-01 05:00:00  39.0  64.4      0
##  6 EWR    2013-01-01 06:00:00  37.9  67.2      0
##  7 EWR    2013-01-01 07:00:00  39.0  64.4      0
##  8 EWR    2013-01-01 08:00:00  39.9  62.2      0
##  9 EWR    2013-01-01 09:00:00  39.9  62.2      0
## 10 EWR    2013-01-01 10:00:00  41    59.6      0
## # … with 26,105 more rows

Groupement et résumé par période

Par défaut, il y a un groupement par l’index (ici chaque heure). Par exemple, le code suivant donne la moyenne par heure (tous aéroports confondus).

weather_tsbl %>%
  summarise(
    temp_mean = mean(temp, na.rm = TRUE),
  )

## # A tsibble: 8,714 x 2 [1h] <America/New_York>
##    time_hour           temp_mean
##    <dttm>                  <dbl>
##  1 2013-01-01 01:00:00      39.3
##  2 2013-01-01 02:00:00      39.7
##  3 2013-01-01 03:00:00      40.0
##  4 2013-01-01 04:00:00      40.3
##  5 2013-01-01 05:00:00      39.3
##  6 2013-01-01 06:00:00      38.6
##  7 2013-01-01 07:00:00      39.3
##  8 2013-01-01 08:00:00      39.9
##  9 2013-01-01 09:00:00      39.9
## 10 2013-01-01 10:00:00      40.6
## # … with 8,704 more rows

On peut toujours grouper par la clé (les aéroports).

weather_tsbl %>%
  group_by_key() %>% # Equivalent à group_by(origin) 
  summarise(
    temp_mean = mean(temp, na.rm = TRUE),
  )

## # A tsibble: 26,115 x 3 [1h] <America/New_York>
## # Key:       origin [3]
##    origin time_hour           temp_mean
##    <chr>  <dttm>                  <dbl>
##  1 EWR    2013-01-01 01:00:00      39.0
##  2 EWR    2013-01-01 02:00:00      39.0
##  3 EWR    2013-01-01 03:00:00      39.0
##  4 EWR    2013-01-01 04:00:00      39.9
##  5 EWR    2013-01-01 05:00:00      39.0
##  6 EWR    2013-01-01 06:00:00      37.9
##  7 EWR    2013-01-01 07:00:00      39.0
##  8 EWR    2013-01-01 08:00:00      39.9
##  9 EWR    2013-01-01 09:00:00      39.9
## 10 EWR    2013-01-01 10:00:00      41  
## # … with 26,105 more rows
…
Filtrage par période

La fonction filter_index permet de filtrer sur les périodes.

Par exemple, si on s’intéresse spécifiquement aux mois d’Octobre et Novembre:

weather_tsbl %>% 
  filter_index("2013-10" ~ "2013-11") # Voir help(filter_index) pour 

## # A tsibble: 2,212 x 5 [1h] <America/New_York>
## # Key:       origin [3]
##    origin time_hour            temp humid precip
##    <chr>  <dttm>              <dbl> <dbl>  <dbl>
##  1 EWR    2013-10-01 00:00:00  59    83.3      0
##  2 EWR    2013-10-01 01:00:00  57.9  86.6      0
##  3 EWR    2013-10-01 02:00:00  57.9  83.8      0
##  4 EWR    2013-10-01 03:00:00  57.0  83.2      0
##  5 EWR    2013-10-01 04:00:00  55.9  86.5      0
##  6 EWR    2013-10-01 05:00:00  53.1  89.3      0
##  7 EWR    2013-10-01 06:00:00  55.0  89.4      0
##  8 EWR    2013-10-01 07:00:00  57.0  86.6      0
##  9 EWR    2013-10-01 08:00:00  63.0  70.1      0
## 10 EWR    2013-10-01 09:00:00  69.1  58.6      0
## # … with 2,202 more rows
…
Pour chaque modèle, on peut analyser les coefficients:

fitted_mable %>%
  dplyr::select(Region, State, Purpose, ets) %>%
  coef()

## # A tibble: 32 x 6
##    Region    State    Purpose  .model term    estimate
##    <chr>     <chr>    <chr>    <chr>  <chr>      <dbl>
##  1 Melbourne Victoria Business ets    alpha   0.235   
##  2 Melbourne Victoria Business ets    beta    0.0224  
##  3 Melbourne Victoria Business ets    gamma   0.000100
##  4 Melbourne Victoria Business ets    l     450.      
##  5 Melbourne Victoria Business ets    b       5.44    
##  6 Melbourne Victoria Business ets    s0      1.50    
##  7 Melbourne Victoria Business ets    s1     37.9     
##  8 Melbourne Victoria Business ets    s2     19.9     
##  9 Melbourne Victoria Holiday  ets    alpha   0.0308  
## 10 Melbourne Victoria Holiday  ets    beta    0.0308  
## # … with 22 more rows
…
Enfin, on peut créer un tableau de prédiction (ou fable):

forecast_fable <- fitted_mable %>%
  forecast(h = "5 years")
forecast_fable

## # A fable: 160 x 7 [1Q]
## # Key:     Region, State, Purpose, .model [8]
##    Region    State    Purpose  .model Quarter        Trips .mean
##    <chr>     <chr>    <chr>    <chr>    <qtr>       <dist> <dbl>
##  1 Melbourne Victoria Business ets    2018 Q1 N(619, 3533)  619.
##  2 Melbourne Victoria Business ets    2018 Q2 N(709, 3766)  709.
##  3 Melbourne Victoria Business ets    2018 Q3 N(738, 4042)  738.
##  4 Melbourne Victoria Business ets    2018 Q4 N(713, 4364)  713.
##  5 Melbourne Victoria Business ets    2019 Q1 N(664, 4735)  664.
##  6 Melbourne Victoria Business ets    2019 Q2 N(755, 5159)  755.
##  7 Melbourne Victoria Business ets    2019 Q3 N(784, 5640)  784.
##  8 Melbourne Victoria Business ets    2019 Q4 N(759, 6181)  759.
##  9 Melbourne Victoria Business ets    2020 Q1 N(710, 6786)  710.
## 10 Melbourne Victoria Business ets    2020 Q2 N(800, 7458)  800.
## # … with 150 more rows

On notera que la prédiction est de la classe distribution du package distributional (voir le travail d’Antoine). On peut ainsi utiliser les fonctionnalités de ce package pour obtenir les intervalles de confiance.

forecast_fable %>%
  hilo(level = c(70, 95))

## # A tsibble: 160 x 9 [1Q]
## # Key:       Region, State, Purpose, .model [8]
##    Region State Purpose .model Quarter        Trips .mean                  `70%`
##    <chr>  <chr> <chr>   <chr>    <qtr>       <dist> <dbl>                 <hilo>
##  1 Melbo… Vict… Busine… ets    2018 Q1 N(619, 3533)  619. [556.9562, 680.1666]70
##  2 Melbo… Vict… Busine… ets    2018 Q2 N(709, 3766)  709. [645.4872, 772.6996]70
##  3 Melbo… Vict… Busine… ets    2018 Q3 N(738, 4042)  738. [672.5729, 804.3587]70
##  4 Melbo… Vict… Busine… ets    2018 Q4 N(713, 4364)  713. [644.9799, 781.9091]70
##  5 Melbo… Vict… Busine… ets    2019 Q1 N(664, 4735)  664. [592.7150, 735.3526]70
##  6 Melbo… Vict… Busine… ets    2019 Q2 N(755, 5159)  755. [680.1205, 829.0112]70
##  7 Melbo… Vict… Busine… ets    2019 Q3 N(784, 5640)  784. [706.1009, 861.7756]70
##  8 Melbo… Vict… Busine… ets    2019 Q4 N(759, 6181)  759. [677.4317, 840.4021]70
##  9 Melbo… Vict… Busine… ets    2020 Q1 N(710, 6786)  710. [624.1262, 794.8863]70
## 10 Melbo… Vict… Busine… ets    2020 Q2 N(800, 7458)  800. [710.5307, 889.5459]70
## # … with 150 more rows, and 1 more variable: `95%` <hilo>
…
