Timevis
…
programmme

## # A tibble: 22 x 6
##       id content            start               end                 group type 
##    <int> <chr>              <dttm>              <dttm>              <chr> <chr>
##  1     1 Arrivée            2020-08-24 13:30:00 NA                  Di    point
##  2     2 Choix des ateliers 2020-08-24 14:00:00 2020-08-24 16:00:00 Di    range
##  3     3 GAM                2020-08-24 16:00:00 2020-08-24 18:45:00 M     range
##  4     4 Optim              2020-08-24 16:00:00 2020-08-24 18:45:00 De    range
##  5     5 ED                 2020-08-24 16:00:00 2020-08-24 18:45:00 M     range
##  6     6 Restitutions       2020-08-25 08:30:00 2020-08-25 11:00:00 Di    range
##  7     7 Enseignement       2020-08-25 11:00:00 2020-08-25 12:15:00 Co    range
##  8     8 Widgets            2020-08-25 11:00:00 2020-08-25 12:15:00 Co    range
##  9     9 Enseignement       2020-08-25 14:00:00 2020-08-25 16:00:00 Co    range
## 10    10 Widgets            2020-08-25 14:00:00 2020-08-25 16:00:00 Co    range
## # … with 12 more rows
…
