Équations différentielles avec R
…
out_lorenz <- ode(y = c(X = 1, Y = 1, Z = 1), times = times, func = lorenz, parms = NULL)

df_lorenz <-
  out_lorenz %>%
  as_tibble() %>%
  mutate_all(as.numeric)

df_lorenz

## # A tibble: 10,001 x 4
##     time     X     Y     Z
##    <dbl> <dbl> <dbl> <dbl>
##  1  0    1      1     1   
##  2  0.01 0.985  1.01  1.26
##  3  0.02 0.973  1.05  1.52
##  4  0.03 0.965  1.11  1.80
##  5  0.04 0.962  1.19  2.09
##  6  0.05 0.964  1.29  2.40
##  7  0.06 0.973  1.41  2.74
##  8  0.07 0.990  1.55  3.11
##  9  0.08 1.02   1.72  3.52
## 10  0.09 1.06   1.91  3.97
## # … with 9,991 more rows
…
